[gd_resource type="Resource" load_steps=2 format=2]

[ext_resource path="res://gs_window_manager/resources/window_resource.gd" type="Script" id=1]

[resource]
script = ExtResource( 1 )
id = "large"
name = "Large Window"
width = 1920
height = 1080
fullscreen = false
default = true
stretch_mode = 0
stretch_aspect = 0
