[gd_resource type="DynamicFont" load_steps=2 format=2]

[ext_resource path="res://game/fonts/ReachingforHeaven.ttf" type="DynamicFontData" id=1]

[resource]
size = 96
outline_size = 4
outline_color = Color( 0, 0, 0, 1 )
use_filter = true
font_data = ExtResource( 1 )
