[gd_scene load_steps=3 format=2]

[ext_resource path="res://game/game.gd" type="Script" id=1]
[ext_resource path="res://game/data/windows/manager.tres" type="Resource" id=2]

[node name="Game" type="Node2D"]
script = ExtResource( 1 )
window_manager = ExtResource( 2 )
