[gd_scene load_steps=2 format=2]

[ext_resource path="res://game/scenes/pickups/light_controller.gd" type="Script" id=1]

[node name="LightController" type="Node2D"]
script = ExtResource( 1 )

[node name="Timer" type="Timer" parent="."]
one_shot = true

[connection signal="timeout" from="Timer" to="." method="_on_Timer_timeout"]
