[gd_scene load_steps=7 format=2]

[ext_resource path="res://game/assets/Ascender/FluctLight.png" type="Texture" id=1]
[ext_resource path="res://game/scenes/pickups/light.gd" type="Script" id=2]
[ext_resource path="res://game/assets/dXjBH.png" type="Texture" id=3]

[sub_resource type="CircleShape2D" id=1]
radius = 8.544

[sub_resource type="Animation" id=2]
length = 0.001
tracks/0/type = "value"
tracks/0/path = NodePath("Sprite:rotation_degrees")
tracks/0/interp = 1
tracks/0/loop_wrap = true
tracks/0/imported = false
tracks/0/enabled = true
tracks/0/keys = {
"times": PoolRealArray( 0 ),
"transitions": PoolRealArray( 1 ),
"update": 0,
"values": [ 0.0 ]
}
tracks/1/type = "value"
tracks/1/path = NodePath(".:rotation_degrees")
tracks/1/interp = 1
tracks/1/loop_wrap = true
tracks/1/imported = false
tracks/1/enabled = true
tracks/1/keys = {
"times": PoolRealArray( 0 ),
"transitions": PoolRealArray( 1 ),
"update": 0,
"values": [ 0.0 ]
}

[sub_resource type="Animation" id=3]
resource_name = "rotate"
length = 2.0
loop = true
tracks/0/type = "value"
tracks/0/path = NodePath(".:rotation_degrees")
tracks/0/interp = 1
tracks/0/loop_wrap = true
tracks/0/imported = false
tracks/0/enabled = true
tracks/0/keys = {
"times": PoolRealArray( 0, 1, 2 ),
"transitions": PoolRealArray( 1, 1, 1 ),
"update": 0,
"values": [ 0.0, 180.0, 360.0 ]
}

[node name="Light" type="Area2D"]
z_index = 99
collision_layer = 8
collision_mask = 2
script = ExtResource( 2 )
speed = 30

[node name="Sprite" type="Sprite" parent="."]
position = Vector2( 1.22392e-06, 7 )
texture = ExtResource( 1 )

[node name="CollisionShape2D" type="CollisionShape2D" parent="."]
position = Vector2( 5.59506e-06, 0 )
shape = SubResource( 1 )

[node name="Timer" type="Timer" parent="."]
wait_time = 10.0
one_shot = true
autostart = true

[node name="AnimationPlayer" type="AnimationPlayer" parent="."]
autoplay = "rotate"
anims/RESET = SubResource( 2 )
anims/rotate = SubResource( 3 )

[node name="Light2D" type="Light2D" parent="."]
visible = false
position = Vector2( 0.525558, 0.105112 )
scale = Vector2( 0.346334, 0.339765 )
texture = ExtResource( 3 )
color = Color( 0.894118, 0.862745, 0.784314, 1 )
mode = 2

[node name="Tween" type="Tween" parent="."]

[connection signal="area_entered" from="." to="." method="_on_Light_area_entered"]
[connection signal="timeout" from="Timer" to="." method="_on_Timer_timeout"]
