[gd_scene load_steps=3 format=2]

[ext_resource path="res://game/assets/platform_hell_sm.png" type="Texture" id=1]

[sub_resource type="RectangleShape2D" id=1]
extents = Vector2( 24, 4 )

[node name="PlatformHellSmall" type="StaticBody2D"]
z_index = -99

[node name="Sprite" type="Sprite" parent="."]
texture = ExtResource( 1 )

[node name="CollisionShape2D" type="CollisionShape2D" parent="."]
position = Vector2( 0, -12 )
shape = SubResource( 1 )
one_way_collision = true
one_way_collision_margin = 10.0
