[gd_scene load_steps=4 format=2]

[ext_resource path="res://game/scenes/spawner.tscn" type="PackedScene" id=1]
[ext_resource path="res://game/scenes/faith/faith.tscn" type="PackedScene" id=2]
[ext_resource path="res://game/scenes/faith/Sin.tscn" type="PackedScene" id=3]

[node name="FaithSpawner" instance=ExtResource( 1 )]
spawn_type = 2
spawn_scenes = [ ExtResource( 2 ), ExtResource( 3 ) ]

[node name="Label" parent="." index="0"]
text = "FAITH"
